(
;
GM[1]
VW[]
RO[6]
US[Converted by sgf2misc-2.5]
ID[ 3/6]
FF[3]
PB[Iwamoto Kaoru]
BR[7 dan]
PW[Hashimoto Utaro]
WR[7 dan]
DT[1945-11-23,24]
PC[Meguro, Tokyo]
RE[B+R]
KM[0]
TM[12h]
;B[qd];W[dc];B[pq];W[oc];B[co];W[qo];B[pe];W[ep];B[dq];W[eq]
;B[dr];W[cf];B[qk];W[op];B[oq];W[qq];B[np];W[qp];B[ip];W[em]
;B[cm];W[jc];B[nd];W[mc];B[nj];W[qm];B[nn];W[dk];B[ef];W[de]
;B[id];W[ic];B[hd];W[ke];B[hg];W[cl];B[dm];W[el];B[di];W[eg]
;B[dg];W[ff];B[eh];W[fg];B[fh];W[fe];B[gh];W[do];B[dp];W[eo]
;B[bm];W[bh];B[cj];W[hm];B[ql];W[om];B[in];W[im];B[hn];W[gm]
;B[hc];W[lq];B[lp];W[kp];B[lo];W[jp];B[jn];W[mq];B[oo];W[iq]
;B[hq];W[hp];B[gp];W[hr];B[ho];W[gr];B[er];W[jf];B[if];W[ih]
;B[ig];W[pj];B[ok];W[qj];B[fn];W[hj];B[qr];W[rr];B[rm];W[rn]
;B[pm];W[pn];B[qn];W[pg];B[jg];W[jj];B[rg];W[ng];B[lf];W[qm]
;B[nc];W[nb];B[ob];W[pb];B[mb];W[oa];B[lc];W[od];B[md];W[oe]
;B[pf];W[of];B[ph];W[le];B[jd];W[oh];B[qg];W[pi];B[qh];W[ni]
;B[pk];W[ri];B[rb];W[gb];B[hb];W[nm];B[lj];W[kl];B[lm];W[me]
;B[ll];W[km];B[kn];W[kc];B[kd];W[ld];B[kb];W[fc];B[qn];W[on]
;B[no];W[qm];B[gk];W[gj];B[fj];W[gn];B[fo];W[fk];B[fl];W[ek]
;B[fm];W[gl];B[en];W[bl];B[qn];W[hh];B[gg];W[qm];B[eb];W[fb]
;B[qn];W[nr];B[cd];W[cg];B[or];W[qm];B[ed];W[fd];B[qn];W[qs]
;B[ps];W[qm];B[ns];W[ms];B[nq];W[os];B[cc];W[db];B[ns];W[mr]
;B[qn];W[pr];B[bi];W[ee];B[mh];W[mi];B[li];W[ji];B[hi];W[gi]
;B[qr];W[qm];B[qc];W[lg];B[mg];W[kg];B[mf];W[lb];B[la];W[ne]
;B[mc];W[kf];B[lh];W[kh];B[ma];W[og];B[qn];W[pr];B[jh];W[mk]
;B[mj];W[lk];B[ml];W[ki];B[ii];W[rk];B[kk];W[jk];B[rl];W[fi]
;B[qr];W[rs];B[ro];W[rp];B[sn];W[sp];B[ch];W[po];B[ir];W[jq]
;B[fr])
