(
;
DT[1962-]
EV[17th Honinbo]
RO[5]
KM[4.5]
BR[9 dan]
WR[Honinbo]
PB[Handa Dogen]
PW[Sakata Eio]
RE[W+0.5]
;B[qd];W[dc];B[pq];W[cq];B[oc];W[qo];B[qk];W[pp];B[oq]
;W[qq];B[qr];W[rq];B[mp];W[ce];B[ic];W[kq];B[dp];W[dq];B[ep]
;W[bo];B[hp];W[op];B[mq];W[io];B[iq];W[lo];B[mo];W[jq];B[ln]
;W[ko];B[qm];W[on];B[rr];W[pl];B[ql];W[nl];B[nn];W[om];B[pi]
;W[nr];B[nq];W[mr];B[lm];W[or];B[pr];W[lk];B[kk];W[kj];B[kl]
;W[lj];B[ip];W[jp];B[jn];W[jo];B[jj];W[ji];B[ij];W[pg];B[oh]
;W[oe];B[kh];W[ki];B[hm];W[im];B[il];W[in];B[gl];W[go];B[eq]
;W[gp];B[gq];W[ir];B[dm];W[dn];B[cn];W[co];B[en];W[do];B[eo]
;W[md];B[mh];W[mf];B[jf];W[kd];B[ie];W[rd];B[re];W[pd];B[qc]
;W[pc];B[pb];W[qb];B[pe];W[od];B[rb];W[pf];B[qa];W[qe];B[rf]
;W[qh];B[ok];W[nk];B[qi];W[rg];B[cg];W[cm];B[cl];W[bm];B[bl]
;W[ch];B[cd];W[dd];B[am];W[bn];B[be];W[dg];B[cf];W[de];B[df]
;W[ef];B[bh];W[eg];B[ci];W[dh];B[bf];W[bd];B[fb];W[eb];B[hr]
;W[ho];B[hq];W[is];B[fc];W[fe];B[kb];W[qf];B[rc];W[bj];B[cj]
;W[bi];B[ad];W[bc];B[bk];W[dj];B[hs];W[kr];B[er];W[ds];B[rn]
;W[ro];B[ri];W[hd];B[id];W[kc];B[mb];W[nb];B[lc];W[ld];B[ob]
;W[nc];B[dr];W[cr];B[na];W[mc];B[lb];W[fm];B[em];W[fl];B[fk]
;W[gj];B[gk];W[hj];B[hk];W[ii];B[es];W[cs];B[hf];W[jm];B[jl]
;W[ll];B[km];W[di];B[ck];W[el];B[dl];W[ah];B[bg];W[ae];B[aj]
;W[oj];B[ek];W[fn];B[ge];W[gf];B[gd];W[hg];B[gh];W[ig];B[gg]
;W[ff];B[fi];W[hi];B[fj];W[if];B[he];W[je];B[pk];W[lg];B[lh]
;W[nh];B[ni];W[ng];B[mi];W[nj];B[oi];W[kg];B[og];W[pj];B[qj]
;W[qn];B[sm];W[fa];B[ga];W[ea];B[gb];W[so];B[rh];W[sg];B[sk]
;W[sr];B[ec];W[db];B[nf];W[mg];B[of];W[ne];B[jh];W[jg];B[os]
;W[sn];B[rm];W[jc];B[jb];W[ac];B[ns];W[lr];B[kn];W[lp];B[cp]
;W[bp];B[jd];W[ke];B[pm];W[mm];B[mn];W[ol];B[pn];W[po];B[sh]
;W[ps];B[qs];W[gm];B[fo];W[gn];B[dk];W[an];B[al];W[fp];B[fq]
;W[ms];B[ps];W[sf];B[sd];W[qg];B[se];W[mj];B[nm];W[ml]
C[278 moves complete.]
)
