(
;
EV[30th Honinbo 1975]
RO[4]
DT[1975-06-16]
PB[Sakata Eio]
PW[Ishida Yoshio]
RE[B+R]
KM[5.5]
TM[9 hours each]
;B[pd];W[cq];B[pq];W[cc];B[qk];W[nc];B[pf];W[jd];B[dp]
;W[dq];B[ep];W[bo];B[eq];W[dn];B[ip];W[ko];B[np];W[ed];B[in]
;W[ok];B[km];W[om];B[qm];W[mo];B[mm];W[nn];B[pn];W[mp];B[nq]
;W[pm];B[ql];W[oi];B[lj];W[po];B[qo];W[jp];B[jq];W[nh];B[nd]
;W[md];B[ne];W[io];B[ho];W[jo];B[iq];W[mg];B[lf];W[lg];B[ld]
;W[hn];B[im];W[gn];B[nj];W[oj];B[nl];W[pk];B[me];W[hj];B[ki]
;W[jg];B[go];W[fo];B[fp];W[kf];B[ii];W[hh];B[kh];W[kg];B[ih]
;W[hg];B[cd];W[dd];B[ce];W[bc];B[di];W[hi];B[en];W[hl];B[il]
;W[dk];B[ck];W[cj];B[dj];W[ci];B[ek];W[dl];B[el];W[em];B[ch]
;W[bk];B[bh];W[cl];B[eh];W[dg];B[ef];W[eg];B[fg];W[df];B[dh]
;W[fm];B[de];W[ff];B[cf];W[ee];B[cg];W[ef];B[fi];W[kc];B[mb]
;W[qc];B[rd];W[nb];B[kb];W[jb];B[na];W[qd];B[re];W[oa];B[ma]
;W[ae];B[ad];W[qe];B[qf];W[pe];B[pb];W[pc];B[qb];W[bd];B[be]
;W[qp];B[qq];W[nk];B[mk];W[rc];B[rb];W[ll];B[lm];W[jn];B[ij]
;W[jh];B[ji];W[qh];B[rg];W[kq];B[er];W[jr];B[ir];W[lr];B[cp]
;W[bp];B[js];W[ks];B[kr];W[af];B[ag];W[jr];B[is];W[oo];B[pp]
;W[ds];B[kr];W[ac];B[bi];W[jr];B[es];W[lb];B[mc]
C[167 moves complete.]
)
