(
;
GM[1]
SZ[19]
DT[1946-08-19..21]
RO[2, playoff]
FF[3]
BR[7 dan]
WR[8 dan]
PB[Iwamoto Kaoru]
PW[Hashimoto Utaro]
RE[B+6]
TM[12 hours each]
ID[ 3/P2]
;B[qd];W[pq];B[od];W[ec];B[co];W[cq];B[dp];W[eq];B[fp]
;W[qn];B[de];W[cg];B[fd];W[fc];B[gd];W[gc];B[hd];W[ic];B[cj]
;W[eg];B[ff];W[cc];B[cd];W[ei];B[fq];W[ek];B[cl];W[fr];B[dq]
;W[dr];B[ep];W[er];B[bq];W[hq];B[cr];W[kq];B[qj];W[bc];B[lp]
;W[lq];B[mp];W[jo];B[lm];W[id];B[dh];W[dg];B[ie];W[je];B[if]
;W[mc];B[jf];W[ke];B[ld];W[nd];B[ne];W[oc];B[md];W[pd];B[nc]
;W[oe];B[nd];W[pe];B[qc];W[pc];B[rf];W[qb];B[rb];W[qf];B[qg]
;W[nf];B[mf];W[mg];B[kf];W[re];B[qe];W[pf];B[rd];W[rg];B[se]
;W[pi];B[qh];W[qi];B[ri];W[pj];B[qk];W[pk];B[kp];W[jp];B[mq]
;W[op];B[kl];W[ql];B[rl];W[rm];B[rh];W[ph];B[pl];W[qm];B[nh]
;W[ng];B[pg];W[og];B[oh];W[mh];B[ni];W[lj];B[ok];W[ol];B[mi]
;W[li];B[nl];W[pm];B[mk];W[kh];B[lg];W[lh];B[jk];W[ij];B[fg]
;W[hi];B[om];W[rj];B[rk];W[sj];B[pl];W[sl];B[eh];W[be];B[hk]
;W[fi];B[ik];W[ih];B[gr];W[gq];B[jr];W[jq];B[hr];W[ir];B[is]
;W[iq];B[fs];W[kr];B[ds];W[mr];B[ch];W[bg];B[jd];W[jc];B[kb]
;W[dl];B[cm];W[lk];B[ll];W[gl];B[gk];W[fm];B[fl];W[fk];B[gm]
;W[el];B[gn];W[hl];B[hm];W[fn];B[jj];W[go];B[ji];W[jh];B[il]
;W[fo];B[kc];W[kd];B[nq];W[on];B[or];W[pr];B[ps];W[qs];B[os]
;W[qr];B[fl];W[le];B[hc];W[hb];B[lf];W[ib];B[nb];W[aj];B[bi]
;W[ai];B[bk];W[pb];B[no];W[nn];B[mn];W[nm];B[oo];W[po];B[ho]
;W[gp];B[ol];W[in];B[hn];W[bd];B[gj];W[fh];B[hg];W[hh];B[bh]
;W[ah];B[fj];W[dk];B[bj];W[di];B[js];W[nr];B[oq];W[ns];B[es]
;W[io];B[mm];W[pn];B[hp];W[dn];B[dm];W[ls];B[em];W[gl];B[en]
;W[kn];B[jm];W[dd];B[ce];W[ed];B[ee];W[eo];B[do];W[mj];B[nj]
;W[ko];B[im];W[ra];B[jb];W[sb];B[rc];W[si];B[sg];W[sk];B[oj]
;W[sh];B[rg];W[gg];B[gf];W[gh];B[ak];W[ag];B[gb];W[fb];B[ia]
;W[ga];B[cf];W[bf];B[ig];W[oa];B[ob];W[ef];B[na];W[ck];B[sc]
;W[qa];B[pa];W[of];B[oa];W[sa])
