(
;
GM[1]
SZ[19]
DT[1945-11-]
RO[3]
FF[3]
BR[7 dan]
WR[7 dan]
KM[0]
PB[Hashimoto Utaro]
PW[Iwamoto Kaoru]
RE[B+3]
TM[12 hours each]
ID[ 3/3]
;B[qd];W[dc];B[pq];W[oc];B[cp];W[pn];B[np];W[eq];B[ce]
;W[dh];B[ld];W[md];B[le];W[me];B[lc];W[pg];B[hp];W[cq];B[bq]
;W[dp];B[co];W[cr];B[dm];W[gc];B[fd];W[fc];B[cc];W[cb];B[dd]
;W[ec];B[bc];W[mn];B[nn];W[nm];B[no];W[om];B[mm];W[ln];B[ml]
;W[lp];B[kl];W[in];B[fp];W[hr];B[gr];W[gq];B[hq];W[fr];B[jq]
;W[jp];B[ok];W[qk];B[pl];W[qp];B[qq];W[ql];B[pc];W[od];B[pm]
;W[qm];B[qf];W[on];B[qg];W[mg];B[kg];W[rp];B[lq];W[mq];B[mp]
;W[kq];B[lr];W[kr];B[lo];W[kp];B[mr];W[do];B[dn];W[ck];B[cl]
;W[dk];B[fn];W[pe];B[qe];W[km];B[ic];W[bb];B[bh];W[pi];B[jl]
;W[lk];B[ll];W[hm];B[gl];W[hl];B[hk];W[gk];B[fl];W[ik];B[hj]
;W[il];B[ki];W[fk];B[lj];W[br];B[bk];W[bj];B[bl];W[gi];B[hi]
;W[hh];B[jj];W[gh];B[ci];W[jh];B[kh];W[ie];B[jg];W[hf];B[gp]
;W[gs];B[ko];W[ih];B[pf];W[og];B[of];W[nf];B[nh];W[ni];B[oi]
;W[oh];B[mh];W[ng];B[oj];W[qh];B[df];W[ij];B[cj];W[ob];B[qb]
;W[kb];B[jd];W[ib];B[jb];W[ja];B[jc];W[hb];B[rq];W[sq];B[sr]
;W[sp];B[pp];W[po];B[jm];W[jn];B[kn];W[rg];B[rf];W[sh];B[ej]
;W[ek];B[ji];W[ii];B[bp];W[ac];B[ad];W[ab];B[be];W[sf];B[se]
;W[sd];B[sg];W[je];B[kf];W[sf];B[rd];W[re];B[sc];W[lb];B[mc]
;W[mb];B[rr];W[iq];B[ol];W[jk];B[kk];W[lh];B[mi];W[lg];B[nc]
;W[nd];B[eh];W[eg];B[ei];W[dg];B[ef];W[fg];B[cg];W[lf];B[ke]
;W[kc];B[kd];W[ch];B[bi];W[pb];B[qa];W[pd];B[qc];W[ar];B[aq]
;W[eo];B[gn];W[li];B[mj];W[ed];B[ee];W[fe];B[ff];W[gd];B[pj]
;W[qj];B[nb];W[na];B[gf];W[ge];B[fq];W[ls];B[ms];W[ks];B[gr]
;W[jr];B[oo];W[jo];B[lm];W[nl];B[nk];W[qn];B[pa];W[oa];B[ig]
;W[oe];B[gg];W[fh];B[hg];W[dl];B[gq]
)
