(
;
GM[1]
SZ[19]
DT[1960-]
RO[6]
FF[3]
BR[8 dan]
WR[Honinbo]
PB[Fujisawa Shuko]
PW[Takagawa Shukaku]
RE[W+1.5]
KM[4.5]
ID[15/6]
;B[qd];W[dc];B[pq];W[co];B[oc];W[qo];B[pl];W[pn];B[qp]
;W[rp];B[rq];W[pp];B[qq];W[op];B[nq];W[ce];B[cq];W[ep];B[eq]
;W[fp];B[fq];W[gp];B[ic];W[ph];B[qj];W[np];B[mq];W[mp];B[oi]
;W[oe];B[nd];W[pd];B[pc];W[qe];B[rd];W[mf];B[oh];W[pg];B[mh]
;W[kf];B[fc];W[dq];B[dr];W[dp];B[kh];W[if];B[di];W[br];B[cr]
;W[bq];B[hr];W[hq];B[iq];W[ir];B[gr];W[jq];B[ip];W[kr];B[cp]
;W[bp];B[es];W[cm];B[is];W[jr];B[lp];W[lo];B[ko];W[lq];B[kp]
;W[jp];B[ln];W[rn];B[oq];W[in];B[nm];W[nn];B[mn];W[ql];B[pm]
;W[qm];B[on];W[sq];B[sr];W[sp];B[kd];W[jd];B[je];W[ke];B[id]
;W[jf];B[ld];W[ie];B[jc];W[ih];B[cf];W[bf];B[bg];W[cg];B[df]
;W[bh];B[dg];W[ag];B[de];W[cd];B[fe];W[jk];B[nf];W[ne];B[of]
;W[me];B[pf];W[pe];B[ii];W[hi];B[ij];W[gh];B[jh];W[gf];B[hg]
;W[gj];B[gg];W[ig];B[fg];W[hh];B[hk];W[il];B[gl];W[kj];B[ki]
;W[ek];B[cj];W[fb];B[gb];W[eb];B[dd];W[ci];B[dj];W[gk];B[hl]
;W[fl];B[fm];W[em];B[gn];W[rr];B[en];W[dn];B[qr];W[ss];B[lr]
;W[kq];B[ms];W[kn];B[mo];W[jo];B[lo];W[ho];B[dh];W[ec];B[gd]
;W[nk];B[ok];W[qk];B[no];W[po];B[pj];W[re];B[rg];W[sd];B[rb]
;W[rh];B[ri];W[qg];B[sh];W[qf];B[mk];W[mj];B[nj];W[lk];B[ml]
;W[mi];B[ni];W[ls];B[ks];W[js];B[os];W[ls];B[mr];W[cs];B[fr]
;W[bi];B[dl];W[el];B[cl];W[eo];B[km];W[ed];B[hf];W[he];B[ge]
;W[bs];B[ds];W[ga];B[ha];W[fa];B[hc];W[sb];B[rc];W[sc];B[rk]
;W[rl];B[jn];W[hm];B[gm];W[hs];B[gs];W[ik];B[hj];W[qh];B[ch]
;W[bg];B[bm];W[bn];B[dm];W[fn];B[cn];W[md];B[mc];W[cm];B[fi]
;W[gi];B[cn];W[ng];B[og];W[cm];B[lh];W[lj];B[cn];W[mg];B[nh]
;W[cm];B[fj];W[fk];B[cn];W[ra];B[an];W[cm];B[jm];W[im];B[cn]
;W[bo];B[qb];W[bj];B[bk];W[sk];B[rj];W[ll];B[aj];W[ai];B[ak]
;W[ao];B[am];W[dk];B[ck];W[lm];B[kl];W[fh];B[eh];W[ej];B[ei]
;W[fd];B[gc];W[od];B[nc];W[ee];B[ef];W[go];B[qa];W[mm];B[nl]
;W[oo];B[qs];W[je];B[cm];W[se];B[sg];W[sa];B[ks];W[io];B[ls]
;W[is]
)
