(
;
BL[1800.0]
WL[1800.0]
DT[1962-]
EV[1st Meijin 1962 league]
RO[League]
KM[5]
BR[9 dan]
WR[9 dan]
PB[Hashimoto Utaro]
PW[Handa Dogen]
RE[B+R]
;B[qd];W[dc];B[pq];W[dq];B[oc];W[qn];B[qp];W[qk];B[do]
;W[co];B[cn];W[cp];B[dm];W[en];B[dn];W[ep];B[eo];W[fp];B[fo]
;W[go];B[ci];W[lq];B[ce];W[ed];B[ef];W[di];B[ch];W[gn];B[kp]
;W[lp];B[ko];W[jr];B[hp];W[gp];B[lo];W[op];B[kq];W[kr];B[mp]
;W[oq];B[nr];W[mo];B[mq];W[lr];B[or];W[mn];B[hq];W[ip];B[io]
;W[iq];B[ho];W[jn];B[jo];W[hr];B[km];W[qf];B[ic];W[cd];B[be]
;W[of];B[ll];W[bd];B[on];W[ml];B[ol];W[lm];B[mk];W[kl];B[lk]
;W[kn];B[jm];W[in];B[ln];W[mm];B[no];W[hn];B[jl];W[gq];B[qi]
;W[pi];B[nl];W[jq];B[qj];W[pj];B[rk];W[ql];B[qh];W[ph];B[qg]
;W[pg];B[rf];W[ok];B[gl];W[gj];B[ik];W[gh];B[hi];W[ff];B[md]
;W[eg];B[mf];W[mh];B[nk];W[rl];B[rj];W[ro];B[rp];W[nj];B[ni]
;W[mi];B[mj];W[oj];B[gc];W[df];B[dj];W[pc];B[pd];W[qc];B[ob]
;W[re];B[qe];W[rd];B[se];W[pe];B[pf];W[pp];B[qq];W[qf];B[od]
;W[jc];B[id];W[jd];B[je];W[ke];B[kf];W[ib];B[hb];W[rg];B[pf]
;W[ie];B[jf];W[qf];B[sf];W[sd];B[pf];W[hd];B[oe];W[hc];B[nh]
;W[ng];B[mg];W[oh];B[nf];W[oi];B[nh];W[og];B[sn]C[157 moves complete.])
