(
;
BL[1800.0]
WL[1800.0]
DT[1962-]
EV[1st Meijin 1962 league]
RO[League]
KM[5]
BR[9 dan]
WR[9 dan]
PB[Fujisawa Hosai]
PW[Hashimoto Shoji]
RE[B+R]
;B[qd];W[qq];B[cd];W[cp];B[ed];W[oc];B[lc];W[qc];B[rc]
;W[pd];B[qb];W[qe];B[pc];W[rd];B[qc];W[pe];B[eq];W[hp];B[cn]
;W[ep];B[dq];W[dp];B[cq];W[fq];B[fr];W[gq];B[gr];W[hr];B[iq]
;W[gs];B[er];W[hq];B[bp];W[bo];B[bq];W[co];B[oq];W[po];B[mp]
;W[di];B[qm];W[qn];B[pm];W[no];B[qi];W[nd];B[qr];W[rr];B[pr]
;W[gc];B[cg];W[dc];B[ec];W[eb];B[fb];W[db];B[fc];W[dd];B[de]
;W[ee];B[ce];W[gb];B[fe];W[ef];B[fa];W[cc];B[ff];W[eg];B[bc]
;W[bb];B[bd];W[ca];B[fg];W[fh];B[gd];W[ea];B[ci];W[ic];B[jd]
;W[he];B[hd];W[id];B[ie];W[gg];B[eh];W[dh];B[ei];W[dg];B[dj]
;W[ej];B[fi];W[cj];B[dk];W[ch];B[bi];W[bh];B[bj];W[bf];B[gh]
;W[cf];B[je];W[qk];B[pk];W[rk];B[rm];W[pj];B[ok];W[pi];B[qp]
;W[pp];B[rq];W[pq];B[ro];W[nq];B[nr];W[op];B[or];W[mo];B[lp]
;W[lo];B[kp];W[om];B[ol];W[ko];B[re];W[rf];B[sd];W[qg];B[dn]
;W[jp];B[jq];W[ip];B[np];W[en];B[em];W[fm];B[el];W[fn];B[gk]
;W[le];B[ld];W[jh];B[me];W[kf];B[md];W[hh];B[hi];W[ii];B[hj]
;W[il];B[nm];W[ij];B[on];W[oo];B[bn];W[an];B[am];W[ao];B[bl]
;W[hk];B[gj];W[gl];B[ig];W[ml];B[jg];W[ih];B[kg];W[li];B[mm]
;W[lm];B[hg];W[mb];B[lb];W[ob];B[mk];W[lk];B[mj];W[kh];B[lg]
;W[la];B[ka];W[ma];B[kb];W[kr];B[kq];W[hs];B[lr];W[fs];B[bs]
;W[js];B[ne];W[mc];B[oe];W[od];B[og]C[195 moves complete.])
