(
;
EV[1st Meijin 1962]
RO[League]
BL[1800.0]
WL[1800.0]
PB[Iwata Masao]
BR[7 dan]
PW[Fujisawa Hosai]
WR[9 dan]
DT[1962-]
PC[Japan]
RE[B+5]
KM[5]
;B[pd];W[pp];B[cd];W[dp];B[ec];W[nc];B[qf];W[pb];B[lc]
;W[qc];B[oc];W[od];B[nd];W[oe];B[pc];W[ob];B[qd];W[mc];B[qb]
;W[ld];B[fq];W[cn];B[dr];W[cq];B[iq];W[pf];B[pg];W[og];B[ph]
;W[rc];B[rb];W[oh];B[pi];W[qm];B[qq];W[pq];B[qp];W[qo];B[ro]
;W[rn];B[po];W[qn];B[pr];W[or];B[qr];W[nq];B[rp];W[qe];B[rd]
;W[rf];B[oo];W[np];B[no];W[mo];B[mn];W[pk];B[pl];W[qk];B[ok]
;W[ol];B[op];W[jq];B[lo];W[ir];B[oi];W[nk];B[mi];W[mg];B[hq]
;W[hr];B[ep];W[kp];B[oq];W[eo];B[fo];W[en];B[dq];W[cp];B[ci]
;W[io];B[ho];W[hn];B[go];W[ip];B[gq];W[gc];B[hd];W[gd];B[he]
;W[ge];B[hf];W[gf];B[hg];W[fh];B[gh];W[cf];B[dg];W[df];B[ef]
;W[dd];B[de];W[ee];B[ce];W[eg];B[bf];W[ff];B[cg];W[oj];B[nh]
;W[ng];B[lj];W[dc];B[kr];W[lr];B[lq];W[mr];B[kq];W[lp];B[jr]
;W[jp];B[gr];W[ln];B[mp];W[mq];B[hs];W[mo];B[kd];W[le];B[mp]
;W[ks];B[is];W[mo];B[qg];W[re];B[sc];W[pe];B[mp];W[ir];B[ed]
;W[mo];B[db];W[ki];B[lm];W[ko];B[mm];W[lk];B[kj];W[ii];B[gi]
;W[hk];B[kl];W[ib];B[fj];W[kk];B[jj];W[ih];B[ji];W[hj];B[jh]
;W[jf];B[kg];W[jg];B[ig];W[je];B[ij];W[hi];B[hl];W[il];B[gl]
;W[ik];B[jk];W[mj];B[jl];W[im];B[rj];W[om];B[rh];W[dj];B[fm]
;W[di];B[ni];W[rk];B[ek];W[lh];B[nj];W[mk];B[li];W[qi];B[lg]
;W[mh];B[kh];W[ri];B[jd];W[lf];B[si];W[qj];B[nn];W[js];B[hc]
;W[hb];B[fb];W[kb];B[cj];W[gg];B[hh];W[cl];B[ef];W[fi];B[gj]
;W[df];B[br];W[cr];B[cs];W[bq];B[bk];W[bl];B[kc];W[lb];B[gb]
;W[ic];B[id];W[jc];B[dh];W[dk];B[ck];W[dl];B[em];W[rg];B[qh]
;W[sj];B[dm];W[cm];B[sh];W[os];B[dn];W[do];B[jm];W[jn];B[eh]
;W[ei];B[fd];W[ak];B[aj];W[al];B[nb];W[na];B[pa];W[mb];B[pn]
;W[pm];B[ga];W[ha];B[sn];W[sm];B[so];W[ps];B[qs];W[hp];B[gp]
;W[ar];B[bs];W[ne];B[fc]
C[263 moves complete.]
)
