(
;
GM[1]
VW[]
US[Converted by sgf2misc-2.5]
GN[meijin/1962/game-a]
EV[1st Meijin Tournament]
PB[Go Seigen]
PW[Hashimoto Shoji]
DT[1962/04/02,03]
RE[B+9]
SO[Go World 21 (1980), has commentary by Go Seigen]
BL[1800.0]WL[1800.0];B[pd];W[dc];B[pp];W[dq];B[de];W[ce];B[dd];W[cd];B[ec];W[eb]
;B[db];W[cc];B[fb];W[df];B[fd];W[cn];B[cb];W[cg];B[jq];W[gq]
;B[qn];W[qf];B[re];W[qi];B[bf];W[cf];B[cl];W[cj];B[co];W[cp]
;B[do];W[bo];B[bn];W[bm];B[dn];W[cm];B[dm];W[an];B[dj];W[dk]
;B[gp];W[dl];B[fq];W[nc];B[rf];W[ql];B[qh];W[pc];B[qc];W[qb]
;B[pi];W[qj];B[oc];W[pb];B[od];W[ob];B[rh];W[pj];B[oi];W[oj]
;B[ni];W[nj];B[hq];W[qq];B[pq];W[qp];B[qo];W[pr];B[or];W[qr]
;B[nq];W[rp];B[nm];W[lj];B[rc];W[lc];B[ro];W[sr];B[mi];W[ml]
;B[ln];W[gl];B[kl];W[pm];B[md];W[nd];B[mc];W[qd];B[ne];W[nb]
;B[me];W[mb];B[el];W[ek];B[fk];W[fl];B[em];W[hj];B[fj];W[ej]
;B[fi];W[jk];B[mj];W[mk];B[kk];W[kj];B[lk];W[km];B[jl];W[lm]
;B[il];W[on];B[oo];W[nn];B[gh];W[kd];B[kf];W[hg];B[di];W[ck]
;B[gg];W[lf];B[kg];W[ke];B[of];W[in];B[jm];W[jn];B[kn];W[ll]
;B[nk];W[nl];B[ol];W[ok];B[mm];W[nk];B[ij];W[ii];B[ji];W[hk]
;B[ik];W[hh];B[mn];W[om];B[gn];W[he];B[hl];W[gk];B[gf];W[fn]
;B[fo];W[eo];B[ep];W[dp];B[en];W[fm];B[eo];W[hm];B[jj];W[ho]
;B[no];W[go];B[eq];W[dr];B[hp];W[jo];B[kp];W[ei];B[hf];W[ig]
;B[ic];W[jh];B[kh];W[jc];B[ie];W[id];B[hd];W[jd];B[jg];W[if]
;B[ge];W[jf];B[ib];W[jb];B[eg];W[eh];B[rk];W[rl];B[ri];W[rj]
;B[sj];W[qk];B[er];W[ee];B[ed];W[es];B[fs];W[ds];B[bb];W[bc]
;B[sk];W[sl];B[si];W[sn];B[le];W[rb];B[rd];W[gs];B[fr];W[ef]
;B[so];W[rn];B[rm];W[sm];B[qm];W[pl];B[ko];W[gr];B[fp];W[fg]
;B[ia];W[hc];B[ga];W[ip];B[iq];W[jp];B[ac];W[ad];B[ab];W[sc]
;B[sd];W[sb];B[ih];W[hi];B[fh];W[ff];B[ja];W[ka];B[ps];W[qs]
;B[os];W[sp];B[po];W[fe];B[jh])
