(
;
GM[1]
EV[5th Meijin Title Match]
RO[1]
PB[Sakata Eio]
BR[Honinbo]
PW[Rin Kaiho]
WR[Meijin]
DT[Aug 5/6, 1966]
PC[Tokyo]
RE[W+J]
KM[5]
SZ[19]
;B[qd];W[cd];B[ec];W[od];B[mc];W[qc];B[pc];W[pd];B[oc]
;W[nc];B[nd];W[nb];B[qb];W[rc];B[ob];W[qe];B[mb];W[ne]
;B[md];W[de];B[ee];W[ef];B[fe];W[dc];B[eb];W[ff];B[ge]
;W[gf];B[he];W[cp];B[eq];W[dk];B[hf];W[oq];B[qq];W[qn]
;B[qo];W[pn];B[op];W[mq];B[np];W[nq];B[on];W[jq];B[hq]
;W[po];B[pp];W[ro];B[rp];W[dq];B[ep];W[dn];B[om];W[pl]
;B[pi];W[of];B[ol];W[pk];B[ok];W[ri];B[rk];W[oj];B[pm]
;W[pj];B[qm];W[qp];B[rr];W[di];B[df];W[dg];B[cf];W[cg]
;B[nj];W[oi];B[ni];W[lf];B[oh];W[ph];B[ng];W[me];B[qi]
;W[qh];B[qj];W[db];B[rb];W[rd];B[da];W[ca];B[ea];W[bb]
;B[el];W[dl];B[do];W[co];B[en];W[em];B[fm];W[dm];B[kr]
;W[jr];B[kq];W[kp];B[jp];W[lq];B[ko];W[lp];B[iq];W[ir]
;B[hr];W[jo];B[ip];W[lr];B[pr];W[or];B[er];W[pq];B[cr]
;W[kn];B[bq];W[ps];B[qo];W[fn];B[an];W[qp];B[rs];W[je]
;B[jd];W[kd];B[jc];W[rj];B[qk];W[ap];B[bp];W[bo];B[ao]
;W[am];B[aq];W[bn];B[gn];W[eo];B[fo];W[en];B[gm];W[og]
;B[nh];W[rm];B[rh];W[rg];B[sj];W[sh];B[qo];W[dr];B[ds]
;W[qp];B[so];W[lo];B[in];W[sn];B[qo];W[cq];B[br];W[qp]
;B[sq];W[kc];B[kb];W[jb];B[ke];W[ed];B[fc];W[kf];B[lc]
;W[le];B[ie];W[qr];B[qo];W[fd];B[gd];W[dd];B[hc];W[gj]
;B[fh];W[gg];B[ap];W[bm];B[fj];W[fk];B[gi];W[ej];B[fi]
;W[hg];B[ii];W[im];B[ig];W[go];B[fp];W[eh];B[sc];W[mn]
;B[nn];W[ik];B[hj];W[gk];B[hh];W[io];B[ho];W[jn];B[hn]
;W[jg];B[jh];W[lk];B[gh];W[eg];B[jj];W[kh];B[ki];W[lh]
;B[is];W[ks];B[jk];W[jl];B[kk];W[hk];B[fl];W[if];B[jf]
;W[qp];B[rq];W[if];B[ih];W[kl];B[jf];W[qs];B[oo];W[if]
;B[mm];W[li];B[jf];W[sp];B[qo];W[if];B[ij];W[lj];B[jf]
;W[qp];B[so];W[if];B[kj];W[ml];B[lm];W[sd];B[sb];W[mg]
;B[jf];W[sp];B[qo];W[if];B[ld];W[ke];B[jf];W[qp];B[so]
;W[if];B[dp];W[hm];B[gl];W[hl];B[km];W[ln];B[jf];W[sp]
;B[qo];W[if];B[sk];W[si];B[gp];W[jm];B[ek];W[ei];B[jf]
;W[qp];B[so];W[if];B[nf];W[nk];B[jf];W[sp];B[qo];W[if]
;B[pg];W[qg];B[pf];W[oe];B[ql];W[jf]
)
