(
;
GM[1]
EV[5th Meijin Title Match]
RO[3]
PB[Sakata Eio]
BR[Honinbo]
PW[Rin Kaiho]
WR[Meijin]
DT[Aug 23/24, 1966]
PC[Yanagakawa]
RE[B+1]
KM[5]
SZ[19]
;B[qd];W[dc];B[pq];W[cp];B[oc];W[qo];B[pm];W[on];B[mq]
;W[ce];B[eq];W[pi];B[qg];W[jd];B[dm];W[do];B[gp];W[dq]
;B[ep];W[dr];B[pk];W[qq];B[qr];W[pp];B[oq];W[rq];B[lc]
;W[oh];B[mk];W[lh];B[db];W[ec];B[ke];W[if];B[kg];W[mm]
;B[lj];W[kh];B[je];W[ie];B[jg];W[ji];B[jh];W[ki];B[oj]
;W[pg];B[qh];W[qc];B[rd];W[pc];B[pd];W[ng];B[id];W[hd]
;B[ic];W[ob];B[nc];W[hc];B[ib];W[rc];B[nb];W[dj];B[hh]
;W[kk];B[ll];W[jm];B[jp];W[lp];B[no];W[om];B[km];W[ik]
;B[jn];W[im];B[ln];W[np];B[op];W[oo];B[mp];W[fn];B[cj]
;W[ck];B[bk];W[ci];B[bj];W[dk];B[cl];W[bm];B[bn];W[cn]
;B[cm];W[bo];B[bl];W[an];B[en];W[eo];B[fm];W[di];B[gn]
;W[fo];B[hm];W[go];B[ho];W[gl];B[gm];W[in];B[hn];W[el]
;B[em];W[hb];B[cc];W[bb];B[rr];W[rm];B[gg];W[ff];B[rk]
;W[ql];B[pl];W[qk];B[qj];W[rl];B[pn];W[po];B[rj];W[ro]
;B[er];W[oa];B[rb];W[sb];B[qb];W[pb];B[qa];W[ra];B[sa]
;W[ia];B[jc];W[ra];B[bc];W[cb];B[sa];W[jb];B[kc];W[ra]
;B[qn];W[rn];B[sa];W[es];B[fs];W[ds];B[ni];W[nh];B[mi]
;W[lg];B[gk];W[gj];B[hk];W[hj];B[fk];W[fj];B[sc];W[gq]
;B[fp];W[iq];B[gr];W[hp];B[hr];W[hq];B[ir];W[jq];B[kq]
;W[kp];B[ip];W[lq];B[jr];W[jo];B[fq];W[mo];B[nq];W[kn]
;B[lr];W[pj];B[mn];W[lm];B[nm];W[kl];B[ml];W[km];B[nn]
;W[ol];B[nl];W[ok];B[bh];W[bi];B[ai];W[bf];B[gf];W[ge]
;B[ko];W[pf];B[cg];W[qf];B[rf];W[re];B[rg];W[qe];B[se]
;W[df];B[eg];W[ef];B[kb];W[ja];B[me];W[sr];B[oe];W[il]
;B[oi];W[ph];B[ek];W[hl];B[fl];W[lf];B[dg];W[fg];B[fh]
;W[fi];B[eh];W[le];B[ld];W[bg];B[cf];W[be];B[ch];W[ag]
;B[ah];W[ne];B[nf];W[mf];B[nd];W[of];B[ne];W[qi];B[ri]
;W[rs];B[pr];W[sk];B[sj];W[sl];B[al];W[am];B[ka];W[ha]
;B[ii];W[ij];B[hf];W[he];B[io];W[ig];B[ih];W[kj];B[mh]
;W[mg];B[dl];W[nk];B[jn];W[sq];B[qs];W[ss];B[dp];W[dn]
;B[jo]
)
