(
;
GM[1]
EV[7th Meijin Title Match]
RO[4]
PB[Rin Kaiho]
BR[Meijin]
PW[Takagawa Shukaku]
WR[9 dan]
DT[1968/Sep/21,22]
PC[Tokyo]
RE[W+J]
KM[5]
SZ[19]
;B[qd];W[cd];B[ec];W[pp];B[eq];W[hd];B[oc];W[dc];B[cp];W[ed]
;B[cj];W[qj];B[nq];W[pn];B[jp];W[cl];B[ek];W[co];B[dp];W[em]
;B[bo];W[dj];B[dk];W[ck];B[ci];W[di];B[ch];W[dh];B[cg];W[cn]
;B[fi];W[fh];B[gh];W[dg];B[be];W[bd];B[cf];W[fg];B[bn];W[gm]
;B[gk];W[im];B[jj];W[jl];B[jh];W[kd];B[qg];W[pr];B[pm];W[on]
;B[pk];W[qc];B[pd];W[qh];B[pg];W[oi];B[nk];W[mj];B[hn];W[hm]
;B[mk];W[lj];B[lk];W[kj];B[kk];W[jk];B[ij];W[lh];B[mn];W[kn]
;B[mh];W[nj];B[lo];W[kg];B[gg];W[ce];B[bk];W[bl];B[ak];W[hf]
;B[gf];W[ge];B[ff];W[df];B[hg];W[io];B[if];W[ip];B[ee];W[de]
;B[fd];W[om];B[lm];W[ko];B[lp];W[ln];B[mm];W[qk];B[jq];W[iq]
;B[jr];W[bf];B[bg];W[ae];B[ag];W[eo];B[lc];W[kc];B[ld];W[eb]
;B[dd];W[bi];B[ai];W[ed];B[pl];W[rm];B[dd];W[bj];B[bh];W[ed]
;B[qm];W[rn];B[dd];W[ob];B[pc];W[ed];B[kb];W[jb];B[lb];W[fc]
;B[oq];W[pq];B[gq];W[fl];B[fk];W[ir];B[or];W[fp];B[gp];W[go]
;B[ps];W[qs];B[os];W[qr];B[qn];W[qo];B[mg];W[lq];B[lr];W[kp]
;B[no];W[kq];B[kr];W[rg];B[rf];W[rh];B[he];W[id];B[jc];W[jd]
;B[oh];W[ph];B[og];W[gr];B[fr];W[fs];B[hr];W[hs];B[es];W[hq]
;B[fq];W[dr];B[cr];W[lf];B[mf];W[gd];B[ja];W[jg];B[ig];W[ib]
;B[ia];W[ha];B[ka];W[sf];B[re];W[hb];B[le];W[er];B[gs];W[rc]
;B[rd];W[fs];B[dq];W[ds];B[cs];W[fe];B[ef];W[dl];B[bm];W[al]
;B[aj];W[am];B[km];W[jm];B[cm];W[dm];B[do];W[dn];B[jo];W[jn]
;B[oo];W[po];B[js];W[mp];B[mo];W[mq];B[mr];W[ji];B[ii];W[ki]
;B[ie];W[is];B[pj];W[pi];B[af];W[be];B[se];W[sg];B[es];W[gs]
;B[eg];W[eh];B[ep];W[fo];B[hp];W[ho];B[bp];W[nl];B[ol];W[nm]
;B[an];W[ql];B[ok];W[nh];B[mi];W[ni];B[ng];W[hk];B[hj];W[ej]
;B[fj]
)
