(
;
GM[1]
EV[7th Meijin Title Match]
RO[3]
PB[Takagawa Shukaku]
BR[9 dan]
PW[Rin Kaiho]
WR[Meijin]
DT[1968/Sept/9,10]
PC[Tokyo]
RE[B+3]
KM[5]
SZ[19]
;B[pd];W[dp];B[qp];W[dc];B[oq];W[qj];B[ce];W[dg];B[ef];W[gc]
;B[cn];W[fp];B[dk];W[jq];B[ql];W[qg];B[qe];W[mc];B[oc];W[mq]
;B[cq];W[cp];B[bp];W[bo];B[bq];W[co];B[er];W[fr];B[eq];W[fq]
;B[ep];W[eo];B[fo];W[dq];B[dr];W[en];B[bn];W[ao];B[es];W[fh]
;B[go];W[fm];B[fk];W[hm];B[io];W[hp];B[ho];W[jp];B[jo];W[jm]
;B[lo];W[np];B[il];W[im];B[mn];W[ij];B[ml];W[dm];B[cl];W[ej]
;B[dj];W[ch];B[ei];W[hl];B[ed];W[ec];B[fd];W[bj];B[dh];W[eg]
;B[ci];W[bh];B[bi];W[eh];B[di];W[cf];B[ai];W[cd];B[be];W[de]
;B[dd];W[cc];B[gd];W[hc];B[df];W[bf];B[ie];W[kf];B[jd];W[ld]
;B[hd];W[ic];B[ih];W[gj];B[gi];W[hg];B[ig];W[fi];B[fj];W[hh]
;B[kh];W[kj];B[mh];W[hf];B[if];W[nm];B[mm];W[mj];B[hj];W[hi]
;B[mf];W[pm];B[qm];W[ok];B[gk];W[ii];B[kl];W[ko];B[kn];W[kp]
;B[jn];W[po];B[ik];W[hk];B[kk];W[gj];B[lj];W[gh];B[qo];W[ke]
;B[li];W[mk];B[lk];W[id];B[he];W[nb];B[je];W[kb];B[ri];W[ng]
;B[mg];W[km];B[ln];W[qc];B[qi];W[re];B[rf];W[rd];B[qf];W[op]
;B[pp];W[pi];B[ph];W[oi];B[pg];W[or];B[ob];W[rb];B[bd];W[bc]
;B[ee];W[ad];B[ae];W[ac];B[pq];W[nq];B[pk];W[jh];B[jg];W[pr]
;B[oj];W[nl];B[nj];W[rq];B[nk];W[an];B[bm];W[ji];B[kg];W[cs]
;B[cr];W[bs];B[ap];W[ar];B[br];W[rp];B[af];W[fl];B[ro];W[ag]
;B[de];W[nd];B[pn];W[nn];B[fc];W[fb];B[ne];W[gl];B[ek];W[qq]
;B[hr];W[hq];B[fs];W[so];B[sn];W[sp];B[qn];W[sm];B[rn];W[ol]
;B[on];W[oo];B[pl];W[ir];B[ff];W[pb];B[pa];W[qa];B[oa];W[pj]
;B[ni];W[lp];B[lb];W[lc];B[kd];W[kc];B[le];W[no];B[om];W[nc]
;B[pc];W[qb];B[oe];W[sf];B[sg];W[se];B[na];W[ma];B[jc];W[jb]
;B[gf];W[gn];B[fn];W[hn];B[ah];W[cg];B[am];W[do];B[ip];W[iq]
;B[gs];W[gr];B[hs];W[is];B[gp];W[gq];B[me];W[lm];B[ll];W[rj]
;B[rk];W[qd];B[od];W[mo];B[cm];W[bg]
)
