(
;
DT[1970-]
RO[5]
KM[5]
EV[9th Meijin 1970]
BR[Meijin]
WR[9 dan]
PB[Rin Kaiho]
PW[Fujisawa Shuko]
RE[W+3]
;B[qd];W[dc];B[pq];W[cq];B[oc];W[po];B[qo];W[qn];B[qp]
;W[pm];B[nq];W[qi];B[ce];W[di];B[hd];W[fd];B[cc];W[cb];B[bc]
;W[dd];B[cg];W[kd];B[hf];W[de];B[df];W[cd];B[bd];W[be];B[cf]
;W[bb];B[bf];W[ac];B[ae];W[ff];B[kf];W[nd];B[nc];W[hc];B[ic]
;W[hb];B[ef];W[gf];B[gd];W[gc];B[ie];W[ge];B[hg];W[bh];B[fc]
;W[fb];B[ec];W[ed];B[fg];W[fi];B[gg];W[dm];B[fp];W[hp];B[ck]
;W[dk];B[co];W[cl];B[dp];W[cp];B[dq];W[bo];B[do];W[bn];B[cr]
;W[br];B[bq];W[bp];B[bs];W[aq];B[hq];W[iq];B[ip];W[gq];B[hr]
;W[gp];B[gr];W[fr];B[fq];W[io];B[jp];W[er];B[jq];W[dr];B[gn]
;W[ho];B[im];W[jo];B[fm];W[en];B[fo];W[gl];B[hn];W[kn];B[jl]
;W[ll];B[jj];W[mo];B[kp];W[np];B[mq];W[pp];B[qq];W[mk];B[qg]
;W[pd];B[pe];W[qc];B[od];W[jb];B[pc];W[qh];B[rg];W[nh];B[ko]
;W[jn];B[gj];W[fk];B[lb];W[jd];B[id];W[kb];B[ni];W[oi];B[mi]
;W[oj];B[si];W[rj];B[ro];W[rn];B[ib];W[ia];B[mh];W[lj];B[li]
;W[oq];B[or];W[op];B[sn];W[sm];B[so];W[sj];B[ng];W[gi];B[hi]
;W[kj];B[ki];W[ij];B[jk];W[hj];B[ii];W[hk];B[lm];W[ln];B[kl]
;W[lk];B[em];W[dn];B[gm];W[md];B[mc];W[lc];B[la];W[jc];B[ne]
;W[me];B[mf];W[pg];B[pf];W[fe];B[km];W[mm];B[el];W[ek];B[eh]
;W[ei];B[ch];W[ci];B[ph];W[oh];B[og];W[sh];B[sg];W[il];B[fs]
;W[cs];B[jm];W[rh];B[je];W[hl];B[ir];W[es];B[gs];W[mb];B[nb]
;W[ka];B[ma];W[ke];B[le];W[ld];B[lf];W[lp];B[lq];W[nj];B[cn]
;W[cm];B[bi];W[bj];B[dh];W[gh];B[ah];W[ai];B[ag];W[hh];B[ih]
;W[lo];B[pi];W[pj];B[pg];W[fl]C[224 moves complete.]
)
