(
;
DT[1970-]
RO[1]
FF[3]
BR[Meijin]
WR[9 dan]
KM[5]
EV[9th Meijin 1970]
PB[Rin Kaiho]
PW[Fujisawa Shuko]
RE[W+4]
;B[qd];W[dc];B[pq];W[cq];B[oc];W[po];B[qo];W[qn];B[qp]
;W[pm];B[nq];W[qi];B[ce];W[ci];B[dd];W[ec];B[cc];W[cb];B[bc]
;W[hc];B[dn];W[fq];B[dk];W[fe];B[qg];W[mc];B[ei];W[df];B[cf]
;W[cg];B[bb];W[fh];B[me];W[kc];B[ql];W[rm];B[pj];W[qc];B[qj]
;W[rd];B[qe];W[pc];B[od];W[re];B[rf];W[op];B[oq];W[mn];B[bg]
;W[dg];B[bh];W[bn];B[co];W[bo];B[cp];W[bq];B[cm];W[bm];B[gq]
;W[gp];B[dq];W[hq];B[bp];W[dr];B[cr];W[dp];B[aq];W[eq];B[cl]
;W[di];B[kq];W[bk];B[bl];W[al];B[bj];W[bi];B[ck];W[aj];B[ak]
;W[lf];B[se];W[ob];B[nb];W[pb];B[nc];W[rb];B[le];W[bk];B[kf]
;W[cj];B[br];W[em];B[dq];W[cq];B[el];W[nj];B[nl];W[mp];B[ll]
;W[mq];B[np];W[no];B[nm];W[om];B[lo];W[mo];B[km];W[kp];B[ki]
;W[rk];B[rl];W[mr];B[nr];W[rj];B[pi];W[pk];B[ok];W[qk];B[so]
;W[sn];B[ro];W[jh];B[id];W[jf];B[kg];W[kh];B[lh];W[ke];B[je]
;W[lg];B[kd];W[jg];B[ke];W[li];B[mh];W[kj];B[mi];W[ji];B[mj]
;W[qh];B[ph];W[ib];B[pp];W[ko];B[gk];W[ej];B[fm];W[gj];B[fk]
;W[fj];B[ho];W[ip];B[ms];W[ls];B[ns];W[kr];B[sd];W[rc];B[rn]
;W[qm];B[sm];W[pl];B[sl];W[oo];B[if];W[db];B[lc];W[kb];B[lb]
;W[fn];B[gm];W[en];B[cn];W[im];B[am];W[an];B[ao];W[ap];B[ik]
;W[gn];B[jn];W[jl];B[hn];W[hm];B[ao];W[kl];B[lm];W[ap];B[jo]
;W[ak];B[go];W[fo];B[ek];W[gl];B[ao];W[am];B[fl];W[hl];B[dm]
;W[hk];B[jp];W[jq];B[hg];W[he];B[ie];W[hh];B[gg];W[pd];B[pe]
;W[rh];B[ed];W[fd];B[gh];W[gi];B[ba];W[ig];B[hd];W[gc];B[fg]
;W[ge];B[hf];W[eg];B[lp];W[lq];B[ln];W[lk];B[hp];W[fp];B[mk]
;W[lj];B[ka];W[ja];B[la];W[ic];B[fb];W[fc];B[ca];W[da];B[jc]
;W[jb];B[ah];W[ai];B[dj];W[hi];B[oa];W[pa];B[na];W[sc];B[sf]
;W[sg];B[ds];W[es];B[cs];W[rg];B[qf];W[mm];B[ml];W[sk];B[sn]
;W[bf];B[be];W[af];B[ae];W[ch];B[ag];W[do];B[nn];W[on];B[de]
;W[ee];B[ff];W[ef];B[ap];W[jd];B[ra];W[qa];B[jc];W[bf];B[af]
;W[jd];B[kn];W[kq];B[jc];W[rq];B[qr];W[jd];B[gr];W[iq];B[jc]
C[289 moves complete, black fills the ko.]
;B[jd]
)
