(
;
EV[1st Meijin title]
RO[3]
BR[Meijin]
WR[9 dan]
KM[5]
PB[Otake Hideo]
PW[Ishida Yoshio]
DT[1976-]
PC[Japan]
TM[9 hours]
RE[B+2]
;B[qd];W[cq];B[cd];W[qq];B[oc];W[ed];B[gd];W[ef];B[cf]
;W[eh];B[ch];W[qi];B[qg];W[pl];B[kq];W[mq];B[eq];W[co];B[hp]
;W[cc];B[bc];W[dc];B[bb];W[ic];B[he];W[gb];B[jd];W[jc];B[kd]
;W[kc];B[ld];W[lc];B[md];W[po];B[fg];W[df];B[ce];W[dh];B[ci]
;W[fd];B[nm];W[om];B[oi];W[ph];B[nl];W[pk];B[mp];W[np];B[mo]
;W[lq];B[kp];W[eo];B[on];W[pn];B[nq];W[nr];B[oq];W[op];B[gj]
;W[gp];B[go];W[fp];B[hq];W[gr];B[dn];W[en];B[gm];W[pg];B[qf]
;W[gh];B[fh];W[ng];B[mh];W[mg];B[lg];W[nh];B[ni];W[fi];B[gi]
;W[gg];B[hh];W[gf];B[oo];W[or];B[ol];W[pj];B[pm];W[qm];B[do]
;W[dp];B[cn];W[bo];B[cl];W[fm];B[gl];W[gn];B[hn];W[fo];B[fn]
;W[cg];B[bg];W[gn];B[ho];W[ig];B[ih];W[lh];B[mi];W[jh];B[kh]
;W[jf];B[ji];W[jg];B[hg];W[hf];B[ie];W[if];B[li];W[nb];B[ob]
;W[nc];B[nd];W[oe];B[mc];W[mb];B[od];W[rh];B[hr];W[fr];B[qh]
;W[pi];B[rg];W[ri];B[fj];W[ei];B[dg];W[eg];B[ge];W[fe];B[bn]
;W[an];B[am];W[ao];B[cm];W[pe];B[qe];W[al];B[bm];W[dj];B[cj]
;W[pd];B[pc];W[cb];B[gc];W[fb];B[lr];W[mr];B[kr];W[dk];B[ck]
;W[ba];B[hc];W[hb];B[lb];W[kb];B[sg];W[lp];B[lo];W[lf];B[kg]
;W[id];B[je];W[kf];B[na];W[la];B[fl];W[ab];B[bd];W[hs];B[is]
;W[gs];B[ek];W[no];B[nn];W[pp];B[sh];W[si];B[fc];W[ec];B[em]
;W[fn];B[dl];W[oj];B[nj];W[ok];B[nk];W[ne];B[ms];W[ns];B[cr]
;W[dr];B[ls];W[de];B[pf];W[of];B[me];W[mf];B[oh];W[og];B[oa]
;W[ma];B[gq];W[fq];B[cg];W[om];B[ac];W[pm];B[aa];W[ir];B[js]
;W[ab];B[ej];W[di];B[aa];W[qc];B[qb];W[ab];B[bq];W[br];B[aa]
;W[rc];B[rb];W[ab];B[le];W[ca]
C[234 moves complete]
BL[7hr 43m]
WL[8hr 58m]
;W[aa]C[White fills the ko.]
)
