(
;
EV[21 Meijin 1996]
RO[1]
PB[Cho Chikun]
BR[9 dan]
PW[Takemiya Masaki]
WR[9 dan]
KM[5.5]
DT[6/7 September 1996]
PC[Hong Kong]
RE[B+R]
SY[Written by GoBase-0.0.9]

;B[qd];W[dp];B[dd];W[pp];B[qn];W[np];B[pk];W[nd];B[oc];W[jd]
;B[od];W[fc];B[cf];W[jp];B[cn];W[fp];B[dk];W[qi];B[oi];W[qg]
;B[hc];W[hd];B[id];W[ie];B[ic];W[gd];B[kb];W[je];B[ld];W[gg]
;B[rj];W[nf];B[og];W[of];B[pf];W[pg];B[qf];W[oh];B[ng];W[nh]
;B[mg];W[le];B[me];W[md];B[lf];W[lc];B[ke];W[kc];B[mj];W[pj]
;B[oj];W[qk];B[pl];W[rk];B[ph];W[pi];B[ql];W[qh];B[rl];W[nj]
;B[ok]
)
