(
;
EV[21st Meijin title]
RO[4]
PB[Takemiya Masaki]
BR[9 dan]
PW[Cho Chikun]
WR[9 dan]
KM[5.5]
DT[9/10 October 1996]
PC[Japan]
RE[W+R]
SY[Written by GoBase-0.0.9]
;
;B[pd];W[dp];B[pp];W[dd];B[pj];W[nc];B[oe];W[nq];B[oo];W[dj]
;B[md];W[qc];B[qd];W[pc];B[mc];W[nb];B[mp];W[qq];B[qp];W[pq]
;B[mq];W[np];B[no];W[mr];B[lr];W[nr];B[jj];W[mo];B[kp];W[nj]
;B[mn];W[lo];B[kn];W[nd];B[ne];W[me];B[mf];W[le];B[lf];W[ke]
;B[kf];W[je];B[ig];W[qj];B[qi];W[pi];B[ph];W[ll];B[km];W[mm]
;B[ln];W[oi];B[qk];W[kj];B[jk];W[rj];B[qh];W[pk];B[pl];W[oj]
;B[ql];W[ol];B[li];W[pm];B[qm];W[lj];B[kk];W[nm];B[nk];W[mi]
;B[nh];W[ki];B[lh];W[rk];B[rl];W[sk];B[ri];W[pn];B[qn];W[qo]
;B[ro];W[po];B[op];W[rn];B[om];W[on];B[nn];W[om];B[rq];W[so]
;B[rp];W[sl];B[jr];W[cn];B[fc];W[ec];B[fd];W[jc];B[df];W[bd]
;B[cl];W[dl];B[dk];W[ck];B[ek];W[bl];B[cj];W[cm];B[bk];W[rr]
;B[sr];W[ci];B[cl];W[lq];B[ck];W[lp];B[cq];W[dq];B[dr];W[er]
;B[br];W[fq];B[cp];W[fn];B[cc];W[dc];B[ic];W[id];B[hc];W[jb]
;B[cd];W[ce];B[cb];W[de];B[bc];W[ef];B[go];W[co];B[eb];W[dh]
)
